module algo

go 1.18

require github.com/stretchr/testify v1.7.1

require (
	github.com/davecgh/go-spew v1.1.0 // indirect
	github.com/pmezard/go-difflib v1.0.0 // indirect
	golang.org/x/exp v0.0.0-20220317015231-48e79f11773a
	gopkg.in/yaml.v3 v3.0.0-20200313102051-9f266ea9e77c // indirect
)
